{

    "control": [
        { "VTOY_DEFAULT_KBD_LAYOUT": "FRENCH" },
        { "VTOY_HELP_TXT_LANGUAGE": "fr_FR" }
    ],

    "theme": {
        "file": "/ventoy/reemploi/theme.txt",
        "ventoy_color": "white"
    },

    "menu_tip": {
      "left": "10%",
      "top": "81%",
      "color": "white",
      "tips": [
          {
              "image": "/clonezilla-live-*.*.*-*-amd64.iso",
              "tip": " Clonezilla pour la clé USB de réemploi Emmabuntüs - Clonezilla for Emmabuntüs refurbishing key"
          },
          {
              "image": "/clonezilla-live-*.*.*-*-i686-pae.iso",
              "tip": " Clonezilla pour la clé USB de réemploi Emmabuntüs - Clonezilla for Emmabuntüs refurbishing key"
          },
          {
              "image": "/clonezilla-live-*.*.*-*-i686.iso",
              "tip": " Clonezilla pour la clé USB de réemploi Emmabuntüs - Clonezilla for Emmabuntüs refurbishing key"
          },
          {
              "image": "/clonezilla-live-*.*.*-**-amd64.iso",
              "tip": " Clonezilla pour la clé USB de réemploi Emmabuntüs - Clonezilla for Emmabuntüs refurbishing key"
          },
          {
              "image": "/clonezilla-live-*.*.*-**-i686-pae.iso",
              "tip": " Clonezilla pour la clé USB de réemploi Emmabuntüs - Clonezilla for Emmabuntüs refurbishing key"
          },
          {
              "image": "/clonezilla-live-*.*.*-**-i686.iso",
              "tip": " Clonezilla pour la clé USB de réemploi Emmabuntüs - Clonezilla for Emmabuntüs refurbishing key"
          }
      ]
    },

    "menu_class": [
        {
            "key": "clonezilla",
            "class": "reemploi"
        },
        {
            "key": "emmabuntus",
            "class": "emmabuntus"
        },
        {
            "key": "debian-facile",
            "class": "df"
        },
        {
            "key": "debian",
            "class": "debian"
        },
        {
            "key": "linuxmint",
            "class": "linuxmint"
        },
        {
            "key": "lmde",
            "class": "lmde"
        },
        {
            "key": "ubuntu",
            "class": "ubuntu"
        },
        {
            "key": "Fedora",
            "class": "fedora"
        },
        {
            "key": "manjaro",
            "class": "manjaro"
        },
        {
            "key": "MX",
            "class": "mx"
        }
        
    ],

    "conf_replace_legacy": [
        {
            "iso": "/clonezilla-live-*.*.*-*-amd64.iso",
            "org": "/syslinux/isolinux.cfg",
            "new": "/ventoy/ventoy_reemploi_isolinux.cfg"
        },
        {
            "iso": "/clonezilla-live-*.*.*-*-amd64.iso",
            "org": "/syslinux/ocswp.png",
            "new": "/ventoy/fond_ecran_reemploi.png"
        },
        {
            "iso": "/clonezilla-live-*.*.*-*-i686-pae.iso",
            "org": "/syslinux/isolinux.cfg",
            "new": "/ventoy/ventoy_reemploi_isolinux.cfg"
        },
        {
            "iso": "/clonezilla-live-*.*.*-*-i686-pae.iso",
            "org": "/syslinux/ocswp.png",
            "new": "/ventoy/fond_ecran_reemploi.png"
        },
        {
            "iso": "/clonezilla-live-*.*.*-*-i686.iso",
            "org": "/syslinux/isolinux.cfg",
            "new": "/ventoy/ventoy_reemploi_isolinux.cfg"
        },
        {
            "iso": "/clonezilla-live-*.*.*-*-i686.iso",
            "org": "/syslinux/ocswp.png",
            "new": "/ventoy/fond_ecran_reemploi.png"
        },
        {
            "iso": "/clonezilla-live-*.*.*-**-amd64.iso",
            "org": "/syslinux/isolinux.cfg",
            "new": "/ventoy/ventoy_reemploi_isolinux.cfg"
        },
        {
            "iso": "/clonezilla-live-*.*.*-**-amd64.iso",
            "org": "/syslinux/ocswp.png",
            "new": "/ventoy/fond_ecran_reemploi.png"
        },
        {
            "iso": "/clonezilla-live-*.*.*-**-i686-pae.iso",
            "org": "/syslinux/isolinux.cfg",
            "new": "/ventoy/ventoy_reemploi_isolinux.cfg"
        },
        {
            "iso": "/clonezilla-live-*.*.*-**-i686-pae.iso",
            "org": "/syslinux/ocswp.png",
            "new": "/ventoy/fond_ecran_reemploi.png"
        },
        {
            "iso": "/clonezilla-live-*.*.*-**-i686.iso",
            "org": "/syslinux/isolinux.cfg",
            "new": "/ventoy/ventoy_reemploi_isolinux.cfg"
        },
        {
            "iso": "/clonezilla-live-*.*.*-**-i686.iso",
            "org": "/syslinux/ocswp.png",
            "new": "/ventoy/fond_ecran_reemploi.png"
        }
    ],

    "conf_replace_uefi": [
        {
            "iso": "/clonezilla-live-*.*.*-*-amd64.iso",
            "org": "/boot/grub/grub.cfg",
            "new": "/ventoy/ventoy_reemploi_grub.cfg"
        },
        {
            "iso": "/clonezilla-live-*.*.*-*-amd64.iso",
            "org": "/boot/grub/ocswp-grub2.png",
            "new": "/ventoy/fond_ecran_reemploi_800.png"
        },
        {
            "iso": "/clonezilla-live-*.*.*-*-i686-pae.iso",
            "org": "/boot/grub/grub.cfg",
            "new": "/ventoy/ventoy_reemploi_grub.cfg"
        },
        {
            "iso": "/clonezilla-live-*.*.*-*-i686-pae.iso",
            "org": "/boot/grub/ocswp-grub2.png",
            "new": "/ventoy/fond_ecran_reemploi_800.png"
        },
        {
            "iso": "/clonezilla-live-*.*.*-*-i686.iso",
            "org": "/boot/grub/grub.cfg",
            "new": "/ventoy/ventoy_reemploi_grub.cfg"
        },
                {
            "iso": "/clonezilla-live-*.*.*-*-i686.iso",
            "org": "/boot/grub/ocswp-grub2.png",
            "new": "/ventoy/fond_ecran_reemploi_800.png"
        },
        {
            "iso": "/clonezilla-live-*.*.*-**-amd64.iso",
            "org": "/boot/grub/grub.cfg",
            "new": "/ventoy/ventoy_reemploi_grub.cfg"
        },
        {
            "iso": "/clonezilla-live-*.*.*-**-amd64.iso",
            "org": "/boot/grub/ocswp-grub2.png",
            "new": "/ventoy/fond_ecran_reemploi_800.png"
        },
        {
            "iso": "/clonezilla-live-*.*.*-**-i686-pae.iso",
            "org": "/boot/grub/grub.cfg",
            "new": "/ventoy/ventoy_reemploi_grub.cfg"
        },
        {
            "iso": "/clonezilla-live-*.*.*-**-i686-pae.iso",
            "org": "/boot/grub/ocswp-grub2.png",
            "new": "/ventoy/fond_ecran_reemploi_800.png"
        },
        {
            "iso": "/clonezilla-live-*.*.*-**-i686.iso",
            "org": "/boot/grub/grub.cfg",
            "new": "/ventoy/ventoy_reemploi_grub.cfg"
        },
        {
            "iso": "/clonezilla-live-*.*.*-**-i686.iso",
            "org": "/boot/grub/ocswp-grub2.png",
            "new": "/ventoy/fond_ecran_reemploi_800.png"
        }
    ]

}


